{
    "regression_metrics": {
        "all_outputs": {
            "mean_squared_error": 0.03479469195008278,
            "root_mean_squared_error": 0.1865333467721939,
            "spearman": 0.3008463056695583,
            "pearson": 0.3487864670571905
        },
        "positive_output": {
            "mean_squared_error": 0.03458812087774277,
            "root_mean_squared_error": 0.18597881495952606,
            "spearman": 0.29805595255596806,
            "pearson": 0.35615287382651895
        },
        "negative_output": {
            "mean_squared_error": 0.03565197438001633,
            "root_mean_squared_error": 0.18881730735301971,
            "spearman": 0.3009999191283541,
            "pearson": 0.3156939098947754
        },
        "softmax_positive_output": {
            "mean_squared_error": 0.034767523407936096,
            "root_mean_squared_error": 0.18646050989627838,
            "spearman": 0.30101650651337275,
            "pearson": 0.3505696677396872
        },
        "softmax_negative_output": {
            "mean_squared_error": 0.03483888506889343,
            "root_mean_squared_error": 0.1866517812013626,
            "spearman": 0.30101588391976153,
            "pearson": 0.3471755197935634
        }
    },
    "raw_metrics": {
        "positive_output": {
            "mean_squared_error": 0.21224361658096313,
            "root_mean_squared_error": 0.46069905161857605,
            "spearman": 0.2980557210771917,
            "pearson": 0.3539802124945195
        },
        "negative_output": {
            "mean_squared_error": 1.0112848281860352,
            "root_mean_squared_error": 1.0056265592575073,
            "spearman": -0.300999625826804,
            "pearson": -0.3188354839872043
        },
        "softmax_positive_output": {
            "mean_squared_error": 0.0753735825419426,
            "root_mean_squared_error": 0.27454251050949097,
            "spearman": 0.3010163576663043,
            "pearson": 0.34859870676905447
        },
        "softmax_negative_output": {
            "mean_squared_error": 0.28227049112319946,
            "root_mean_squared_error": 0.5312913656234741,
            "spearman": -0.3010163576663043,
            "pearson": -0.3485987061097189
        }
    }
}